-------------------------------------------------------------------------------
Test set: com.aqa.TestCases.LoginScenarios
-------------------------------------------------------------------------------
Tests run: 1, Failures: 0, Errors: 0, Skipped: 0, Time elapsed: 15.765 s - in com.aqa.TestCases.LoginScenarios
