<?xml version="1.0" encoding="UTF-8"?>
<testng-results ignored="0" total="3" passed="3" failed="0" skipped="0">
  <reporter-output>
    <line>
      <![CDATA[Application closed]]>
    </line>
    <line>
      <![CDATA[Application closed]]>
    </line>
    <line>
      <![CDATA[Application closed]]>
    </line>
  </reporter-output>
  <suite started-at="2023-04-20T08:00:37 WAT" name="Surefire suite" finished-at="2023-04-20T08:01:02 WAT" duration-ms="24603">
    <groups>
    </groups>
    <test started-at="2023-04-20T08:00:37 WAT" name="Surefire test" finished-at="2023-04-20T08:01:02 WAT" duration-ms="24603">
      <class name="com.aqa.TestCases.LoginScenarios">
        <test-method is-config="true" signature="launch_browser()[pri:0, instance:com.aqa.TestCases.LoginScenarios@9573584]" started-at="2023-04-20T08:00:58 WAT" name="launch_browser" finished-at="2023-04-20T08:01:01 WAT" duration-ms="3430" status="PASS">
          <reporter-output>
          </reporter-output>
        </test-method> <!-- launch_browser -->
        <test-method signature="UserValid()[pri:1, instance:com.aqa.TestCases.LoginScenarios@9573584]" started-at="2023-04-20T08:01:01 WAT" name="UserValid" description="Verify that User can Login successfully with valid credentials" finished-at="2023-04-20T08:01:02 WAT" duration-ms="802" status="PASS">
          <reporter-output>
            <line>
              <![CDATA[Application closed]]>
            </line>
          </reporter-output>
        </test-method> <!-- UserValid -->
        <test-method is-config="true" signature="close_browser()[pri:0, instance:com.aqa.TestCases.LoginScenarios@9573584]" started-at="2023-04-20T08:01:02 WAT" name="close_browser" finished-at="2023-04-20T08:01:02 WAT" duration-ms="251" status="PASS">
          <reporter-output>
          </reporter-output>
        </test-method> <!-- close_browser -->
      </class> <!-- com.aqa.TestCases.LoginScenarios -->
      <class name="com.aqa.TestCases.CheckSortASC">
        <test-method is-config="true" signature="launch_browser()[pri:0, instance:com.aqa.TestCases.CheckSortASC@2b175c00]" started-at="2023-04-20T08:00:38 WAT" name="launch_browser" finished-at="2023-04-20T08:00:44 WAT" duration-ms="6558" status="PASS">
          <reporter-output>
          </reporter-output>
        </test-method> <!-- launch_browser -->
        <test-method signature="CheckSort()[pri:1, instance:com.aqa.TestCases.CheckSortASC@2b175c00]" started-at="2023-04-20T08:00:44 WAT" name="CheckSort" description="Verify that items are sorted A - Z in ascending order" finished-at="2023-04-20T08:00:49 WAT" duration-ms="4735" status="PASS">
          <reporter-output>
            <line>
              <![CDATA[Application closed]]>
            </line>
          </reporter-output>
        </test-method> <!-- CheckSort -->
        <test-method is-config="true" signature="close_browser()[pri:0, instance:com.aqa.TestCases.CheckSortASC@2b175c00]" started-at="2023-04-20T08:00:49 WAT" name="close_browser" finished-at="2023-04-20T08:00:49 WAT" duration-ms="1" status="PASS">
          <reporter-output>
          </reporter-output>
        </test-method> <!-- close_browser -->
      </class> <!-- com.aqa.TestCases.CheckSortASC -->
      <class name="com.aqa.TestCases.CheckSortDESC">
        <test-method is-config="true" signature="launch_browser()[pri:0, instance:com.aqa.TestCases.CheckSortDESC@4278284b]" started-at="2023-04-20T08:00:49 WAT" name="launch_browser" finished-at="2023-04-20T08:00:53 WAT" duration-ms="3423" status="PASS">
          <reporter-output>
          </reporter-output>
        </test-method> <!-- launch_browser -->
        <test-method signature="CheckSort()[pri:1, instance:com.aqa.TestCases.CheckSortDESC@4278284b]" started-at="2023-04-20T08:00:53 WAT" name="CheckSort" description="Verify that items are sorted Z - A in descending order" finished-at="2023-04-20T08:00:58 WAT" duration-ms="5043" status="PASS">
          <reporter-output>
            <line>
              <![CDATA[Application closed]]>
            </line>
          </reporter-output>
        </test-method> <!-- CheckSort -->
        <test-method is-config="true" signature="close_browser()[pri:0, instance:com.aqa.TestCases.CheckSortDESC@4278284b]" started-at="2023-04-20T08:00:58 WAT" name="close_browser" finished-at="2023-04-20T08:00:58 WAT" duration-ms="1" status="PASS">
          <reporter-output>
          </reporter-output>
        </test-method> <!-- close_browser -->
      </class> <!-- com.aqa.TestCases.CheckSortDESC -->
    </test> <!-- Surefire test -->
  </suite> <!-- Surefire suite -->
</testng-results>
